{
  "qInfo": {
    "qId": "95a08ca4-7af0-499a-85b0-fe80fd46842a",
    "qType": "variable"
  },
  "qMetaDef": {},
  "qName": "index",
  "qNumberPresentation": {
    "qType": "U",
    "qnDec": 10,
    "qUseThou": 0
  },
  "qDefinition": "0",
  "qIsScriptCreated": true
}