{
  "qTitle": "Customers",
  "qThumbnail": {},
  "encrypted": true,
  "id": "4a801db8-02c8-4a54-8f20-ba5bcbf2e6d2",
  "published": false,
  "owner": "auth0|ddb0574a1050fed72c48162e44d302e56d6cf286928325f740e14f923cba755c",
  "ownerId": "63355f7b4531b3434df1cbb6",
  "_resourcetype": "app"
}